{
    "name": "Unity",
    "references": [
        "GUID:6055be8ebefd69e48b49212b09b47b2f",
        "GUID:58bed0e7c5306824586d7eda03609289"
    ],
    "includePlatforms": [],
    "excludePlatforms": [],
    "allowUnsafeCode": false,
    "overrideReferences": false,
    "precompiledReferences": [],
    "autoReferenced": true,
    "defineConstraints": [],
    "versionDefines": [],
    "noEngineReferences": false
}